<?xml version="1.0" encoding="utf-8"?>
<!-- Generator: Adobe Illustrator 19.2.1, SVG Export Plug-In . SVG Version: 6.00 Build 0)  -->
<svg version="1.1" id="Layer_1" xmlns="http://www.w3.org/2000/svg" xmlns:xlink="http://www.w3.org/1999/xlink" x="0px" y="0px"
	 viewBox="0 0 379.4 41.7" style="enable-background:new 0 0 379.4 41.7;" xml:space="preserve">
<g>
	<g>
		<path style="fill:#FFFFFF;" d="M4.9,36c-0.9,0-1.6-0.7-1.6-1.6V4.7C3.3,3.8,4,3,4.9,3s1.6,0.7,1.6,1.6v29.7
			C6.5,35.3,5.8,36,4.9,36z"/>
		<path style="fill:#FFFFFF;" d="M5,21.2c-0.6,0-1.2-0.3-1.5-0.9c-0.4-0.8-0.1-1.8,0.7-2.2L33.5,3.3c0.8-0.4,1.8-0.1,2.2,0.7
			c0.4,0.8,0.1,1.8-0.7,2.2L5.7,21C5.5,21.1,5.3,21.2,5,21.2"/>
		<path style="fill:#FFFFFF;" d="M34.1,35.9c-0.3,0-0.5-0.1-0.8-0.2L4.5,20.7c-0.8-0.4-1.1-1.4-0.7-2.2c0.4-0.8,1.4-1.1,2.2-0.7
			l28.8,15.1c0.8,0.4,1.1,1.4,0.7,2.2C35.3,35.6,34.7,35.9,34.1,35.9"/>
		<path style="fill:#FFFFFF;" d="M41.9,41.7H1.6C0.7,41.7,0,41,0,40.1c0-0.9,0.7-1.6,1.6-1.6h37V1.7c0-0.9,0.7-1.6,1.6-1.6
			c0.9,0,1.6,0.7,1.6,1.6V41.7z"/>
		<path style="fill:#FFFFFF;" d="M87.1,41.7H46.8c-0.9,0-1.6-0.7-1.6-1.6c0-0.9,0.7-1.6,1.6-1.6h37V1.7c0-0.9,0.7-1.6,1.6-1.6
			c0.9,0,1.6,0.7,1.6,1.6V41.7z"/>
		<path style="fill:#FFFFFF;" d="M132.3,41.7H92c-0.9,0-1.6-0.7-1.6-1.6c0-0.9,0.7-1.6,1.6-1.6h37V1.7c0-0.9,0.7-1.6,1.6-1.6
			c0.9,0,1.6,0.7,1.6,1.6V41.7z"/>
		<path style="fill:#FFFFFF;" d="M64.6,35.9c-0.6,0-1.2-0.3-1.4-0.9L48.3,5.9c-0.4-0.8-0.1-1.8,0.7-2.2s1.8-0.1,2.2,0.7l13.4,26.3
			L78,4.4c0.4-0.8,1.4-1.1,2.2-0.7c0.8,0.4,1.1,1.4,0.7,2.2L66.1,35c-0.2,0.5-0.6,0.8-1.1,0.9C64.9,35.9,64.8,35.9,64.6,35.9"/>
		<path style="fill:#FFFFFF;" d="M95.2,36c-0.9,0-1.6-0.7-1.6-1.6V4.7c0-0.9,0.7-1.6,1.6-1.6c0.9,0,1.6,0.7,1.6,1.6v29.7
			C96.8,35.3,96.1,36,95.2,36"/>
		<path style="fill:#FFFFFF;" d="M124.1,36c-0.9,0-1.6-0.7-1.6-1.6V4.7c0-0.9,0.7-1.6,1.6-1.6s1.6,0.7,1.6,1.6v29.7
			C125.8,35.3,125,36,124.1,36z"/>
		<path style="fill:#FFFFFF;" d="M124.1,21.3H95.3c-0.9,0-1.6-0.7-1.6-1.6c0-0.9,0.7-1.6,1.6-1.6h28.8c0.9,0,1.6,0.7,1.6,1.6
			C125.8,20.5,125,21.3,124.1,21.3"/>
		<path style="fill:#FFFFFF;" d="M134.6,2.1c0-1,0.8-1.8,1.7-1.8c1,0,1.7,0.8,1.7,1.8c0,1-0.8,1.8-1.7,1.8
			C135.4,3.9,134.6,3.1,134.6,2.1 M136.3,4.2c1.2,0,2.1-0.9,2.1-2.1c0-1.2-1-2.1-2.1-2.1c-1.2,0-2.1,0.9-2.1,2.1
			C134.2,3.3,135.2,4.2,136.3,4.2 M135.9,2.3h0.4l0.6,1.1h0.4l-0.7-1.1c0.4,0,0.6-0.2,0.6-0.7c0-0.5-0.3-0.7-0.9-0.7h-0.9v2.4h0.4
			V2.3z M135.9,2V1.2h0.5c0.3,0,0.5,0.1,0.5,0.4c0,0.4-0.3,0.4-0.6,0.4H135.9z"/>
	</g>
	<g>
		<polygon style="fill:#FFFFFF;" points="372.1,2.5 372.1,3.1 373.2,3.1 373.2,6.2 373.9,6.2 373.9,3.1 375.1,3.1 375.1,2.5 		"/>
		<polygon style="fill:#FFFFFF;" points="378.5,2.5 377.5,5.4 377.4,5.4 376.4,2.5 375.5,2.5 375.5,6.2 376.1,6.2 376.1,3.4 
			376.1,3.4 377.2,6.2 377.7,6.2 378.7,3.4 378.7,3.4 378.7,6.2 379.4,6.2 379.4,2.5 		"/>
	</g>
	<g>
		<path style="fill:#FFFFFF;" d="M167.6,35.9h-8L149.2,3.7h7.3l7.2,22.6h0.1L171,3.7h7.3L167.6,35.9z"/>
		<path style="fill:#FFFFFF;" d="M182.1,3.7h7.1v32.1h-7.1V3.7z"/>
		<path style="fill:#FFFFFF;" d="M196.5,3.7h13.9c8.3,0,14.6,5.2,14.6,15.9c0,9.3-4.8,16.3-14.6,16.3h-13.9V3.7z M203.5,29.9h6.3
			c4.1,0,8-2.5,8-9.6c0-6.5-2.3-10.6-9.3-10.6h-5V29.9z"/>
		<path style="fill:#FFFFFF;" d="M230.9,3.7h24v5.9h-17v6.9h15.6V22H238v7.9h17.3v5.9h-24.4V3.7z"/>
		<path style="fill:#FFFFFF;" d="M275.6,3c9.9,0,15.8,7.4,15.8,17c0,9.3-5.9,16.7-15.8,16.7s-15.8-7.4-15.8-16.7
			C259.8,10.4,265.6,3,275.6,3z M275.6,30.7c6.3,0,8.7-5.4,8.7-10.8c0-5.6-2.4-11-8.7-11s-8.7,5.4-8.7,11
			C266.8,25.3,269.2,30.7,275.6,30.7z"/>
		<path style="fill:#FFFFFF;" d="M304.4,9.7h-9.6V3.7h26.3v5.9h-9.6v26.2h-7.1V9.7z"/>
		<path style="fill:#FFFFFF;" d="M325.9,3.7h24v5.9h-17v6.9h15.6V22h-15.6v7.9h17.3v5.9h-24.4V3.7z"/>
		<path style="fill:#FFFFFF;" d="M356.1,3.7h7.1v26.2h15.7v5.9h-22.7V3.7z"/>
	</g>
</g>
<g>
</g>
<g>
</g>
<g>
</g>
<g>
</g>
<g>
</g>
<g>
</g>
</svg>
