<?xml version="1.0" encoding="utf-8"?>
<!-- Generator: Adobe Illustrator 19.2.1, SVG Export Plug-In . SVG Version: 6.00 Build 0)  -->
<svg version="1.1" id="Layer_1" xmlns="http://www.w3.org/2000/svg" xmlns:xlink="http://www.w3.org/1999/xlink" x="0px" y="0px"
	 viewBox="0 0 1204 631" style="enable-background:new 0 0 1204 631;" xml:space="preserve">
<g>
	<g id="illustration">
		<g>
			<g transform="matrix( 1, 0, 0, 1, 0,0) ">
				<g>
					<g id="Layer9_0_FILL_1_">
						<path style="fill:#FFFFFF;" d="M454.7,251.7c-19.5,19.5-34.5,41.8-45.1,67.2C398.5,345,393,372.3,393,401
							c0,28.7,5.5,56,16.6,82.1c10.6,25.3,25.7,47.7,45.1,67c19.5,19.5,41.8,34.5,67.2,45.3c26.1,11.1,53.4,16.6,82.1,16.6
							c28.7,0,56-5.5,82.1-16.6c25.3-10.7,47.7-25.8,67-45.3c19.5-19.4,34.6-41.7,45.3-67c11.1-26.1,16.6-53.4,16.6-82.1
							c0-28.7-5.5-56-16.6-82.1c-10.7-25.3-25.8-47.7-45.3-67.2c-41.2-41.2-90.8-61.7-149-61.7c-28.7,0-56,5.5-82.1,16.6
							C496.5,217.3,474.1,232.4,454.7,251.7 M498.5,531.7C470.1,503.3,456,469.1,456,429s14.2-74.4,42.5-102.7
							c21.4-21.4,46.2-34.6,74.3-39.8c-27.2,5.6-51.3,18.9-72.2,39.8c-28.4,28.4-42.5,62.6-42.5,102.7s14.2,74.4,42.5,102.7
							c20.9,20.9,45,34.1,72.2,39.7C544.7,566.4,520,553,498.5,531.7z"/>
						<path style="fill:#FEFEFE;" d="M600.4,63c-17.2,0-31.9,6.1-44,18.2c-12.1,12.1-18.2,26.9-18.2,44c0,17.2,6.1,31.9,18.2,44.1
							c12.1,12.1,26.8,18.1,44,18.1c17.1,0,31.8-6.1,44-18.1c12.1-12.1,18.2-26.9,18.2-44.1c0-17.1-6.1-31.8-18.2-44
							C632.2,69.1,617.6,63,600.4,63z"/>
					</g>
				</g>
				<g>
					<path id="Layer9_0_1_STROKES_1_" style="fill:none;stroke:#999999;stroke-width:3;" d="M600.4,63c17.1,0,31.8,6.1,44,18.2
						c12.1,12.1,18.2,26.9,18.2,44c0,17.2-6.1,31.9-18.2,44.1c-12.1,12.1-26.8,18.1-44,18.1s-31.9-6.1-44-18.1
						c-12.1-12.1-18.2-26.9-18.2-44.1c0-17.1,6.1-31.8,18.2-44C568.6,69.1,583.2,63,600.4,63z"/>
				</g>
				<g>
					<path id="Layer9_0_2_STROKES_1_" style="fill:none;stroke:#666666;stroke-width:3;" d="M454.7,251.7
						c19.5-19.5,41.8-34.5,67.2-45.1c26.1-11.1,53.4-16.6,82.1-16.6c58.2,0,108,20.5,149,61.7c19.5,19.5,34.5,41.8,45.3,67.2
						c11.1,26.1,16.6,53.4,16.6,82.1c0,28.7-5.5,56-16.6,82.1c-10.6,25.3-25.7,47.7-45.3,67c-19.4,19.5-41.7,34.5-67,45.3
						c-26.1,11.1-53.4,16.6-82.1,16.6c-28.7,0-56-5.5-82.1-16.6c-25.3-10.7-47.7-25.8-67.2-45.3c-19.5-19.4-34.5-41.7-45.1-67
						C398.5,457,393,429.6,393,401c0-28.7,5.5-56,16.6-82.1C420.2,293.5,435.2,271.2,454.7,251.7z"/>
				</g>
			</g>
			<g transform="matrix( 1, 0, 0, 1, 0,0) ">
				<g>
					<g id="Layer9_0_MEMBER_0_FILL_1_">
						<path style="fill:#FEFEFE;" d="M571.3,21.7l-3-2.5l0.1,114.9c14.8,21.2,29.7,27.6,44.7,19.2c7.4-4.2,13.3-10.5,17.8-19V22
							c-5.1,3.5-11.7,4.3-19.7,2.3l-10.6-4.1c-5.9,7.1-13,9.1-21.3,5.9C576.4,25.1,573.8,23.6,571.3,21.7z"/>
					</g>
				</g>
				<g>
					<path id="Layer9_0_MEMBER_0_1_STROKES_1_" style="fill:none;stroke:#999999;stroke-width:3;" d="M572.7,22.3
						c2.6,2,3.8,2.7,6.4,3.7c8.4,3.2,15.5,1.3,21.3-5.9l10.6,4.1c8,2,14.6,1.3,19.7-2.3v112.3c-4.5,8.4-10.4,14.7-17.8,19
						c-14.9,8.4-28.5,2-43.3-19.2l-0.1-114.9L572.7,22.3z"/>
				</g>
			</g>
			<g transform="matrix( 1, 0, 0, 1, 0,0) ">
				<g>
					<g id="Layer9_0_MEMBER_1_FILL_1_">
						<path style="fill:#FFFFFF;" d="M600.4,93.4c-8.8,0-16.4,3.1-22.6,9.4c-6.3,6.3-9.4,13.8-9.4,22.5c0,8.8,3.1,16.4,9.4,22.6
							c6.3,6.3,13.8,9.4,22.6,9.4s16.3-3.1,22.5-9.4s9.4-13.8,9.4-22.6c0-8.8-3.1-16.3-9.4-22.5C616.7,96.5,609.2,93.4,600.4,93.4z"
							/>
					</g>
				</g>
				<g>
					<path id="Layer9_0_MEMBER_1_1_STROKES_1_" style="fill:none;stroke:#999999;stroke-width:3;" d="M600.4,93.4
						c8.8,0,16.3,3.1,22.5,9.4c6.3,6.3,9.4,13.8,9.4,22.5s-3.1,16.3-9.4,22.6c-6.3,6.3-13.8,9.4-22.5,9.4s-16.3-3.1-22.6-9.4
						s-9.4-13.8-9.4-22.6c0-8.8,3.1-16.3,9.4-22.5C584,96.5,591.6,93.4,600.4,93.4z"/>
				</g>
			</g>
			<g transform="matrix( 1, 0, 0, 1, 0,0) ">
				<g>
					
						<path id="Layer8_0_1_STROKES_1_" style="fill:none;stroke:#666666;stroke-width:3;stroke-linecap:round;stroke-linejoin:round;" d="
						M705.2,327c28.4,28.4,42.7,62.7,42.7,102.8s-14.2,74.3-42.7,102.6c-28.4,28.4-62.5,42.6-102.6,42.6
						c-40.1,0-74.4-14.2-102.8-42.6c-28.3-28.3-42.4-62.5-42.4-102.6s14.1-74.4,42.4-102.8c28.4-28.3,62.7-42.4,102.8-42.4
						C642.7,284.5,676.9,298.7,705.2,327z"/>
				</g>
			</g>
			<g transform="matrix( 1, 0, 0, 1, 599,325.45) ">
				<g transform="matrix( 1, 0, 0, 1, 0,0) ">
					<g>
						<path id="hor_line_0_Layer0_0_1_STROKES_1_" style="fill:none;stroke:#FF3300;stroke-width:2;stroke-miterlimit:10;" d="
							M58.1,104H329 M58.1,66.7H329 M-323,66.7h277.9 M-323,104h277.9"/>
					</g>
					<g>
						<path id="hor_line_0_Layer0_0_2_STROKES_1_" style="fill:none;stroke:#999999;stroke-width:2;stroke-miterlimit:10;" d="
							M-40.3,66.8H3.3 M-40.3,104.1H3.3 M10.5,66.8H54 M10.5,104.1H54"/>
					</g>
				</g>
			</g>
			<g transform="matrix( 1, 0, 0, 1, 757.95,310) ">
				<g transform="matrix( 1, 0, 0, 1, 0,0) ">
					<g>
						<path id="ver_line_0_Layer0_0_1_STROKES_1_" style="fill:none;stroke:#999999;stroke-width:2;stroke-miterlimit:10;" d="
							M-152.1,80.1v4.5 M-152.1,117.3v4.5 M-152.1,85.7v30.8 M-152.1,50.1v28.8 M-152.1,122.9v29.9"/>
					</g>
				</g>
			</g>
			<g transform="matrix( 1, 0, 0, 1, 760.15,345.4) ">
				<g transform="matrix( 1, 0, 0, 1, 0,0) ">
					<g>
						<g id="arrow1_0_Layer0_0_FILL_1_">
							<path style="fill:#FF0000;" d="M-73.2,161.9L-73.2,161.9l4.1,4.1L-73.2,161.9l-6.2,6.1l24.2,11.6l-12.1-24.1l-5.3,5.5
								L-73.2,161.9z"/>
						</g>
					</g>
					<g>
						
							<path id="arrow1_0_Layer0_0_1_STROKES_1_" style="fill:none;stroke:#FF0000;stroke-width:1.5;stroke-linecap:round;stroke-linejoin:round;" d="
							M-69,166l-4.1-4l-76.5-73.9"/>
					</g>
				</g>
			</g>
			<g transform="matrix( 1, 0, 0, 1, 760.15,254.3) ">
				<g transform="matrix( 1, 0, 0, 1, 0,0) ">
					<g>
						<g id="arrow2_0_Layer0_0_FILL_1_">
							<path style="fill:#FF0000;" d="M-39.5,8.6l1.9-2.1L-39.5,8.6L-39,9h0.1l6.3,5.8l10.4-24.6l-23.3,13l5.6,5L-39.5,8.6z"/>
						</g>
					</g>
					<g>
						
							<path id="arrow2_0_Layer0_0_1_STROKES_1_" style="fill:none;stroke:#FF0000;stroke-width:1.5;stroke-linecap:round;stroke-linejoin:round;" d="
							M-39.5,8.6l-2.1,2.4l-108.1,122.6 M-39.5,8.6l1.9-2.1"/>
					</g>
				</g>
			</g>
		</g>
		<g>
			<g>
				<g style="enable-background:new    ;">
					<path style="fill:#FFFFFF;" d="M663.9,536.2h-1.7v-10.6c-0.4,0.4-0.9,0.8-1.6,1.1s-1.2,0.7-1.7,0.9V526c0.9-0.4,1.7-1,2.4-1.6
						c0.7-0.6,1.2-1.2,1.5-1.8h1.1V536.2z"/>
				</g>
				<g style="enable-background:new    ;">
					<path style="fill:none;stroke:#FFFFFF;stroke-miterlimit:10;" d="M663.9,536.2h-1.7v-10.6c-0.4,0.4-0.9,0.8-1.6,1.1
						s-1.2,0.7-1.7,0.9V526c0.9-0.4,1.7-1,2.4-1.6c0.7-0.6,1.2-1.2,1.5-1.8h1.1V536.2z"/>
				</g>
			</g>
		</g>
	</g>
	<g>
		<circle style="fill:#43B4DF;" cx="691.3" cy="80.4" r="18.2"/>
		<circle style="fill:#43B4DF;" cx="689.1" cy="246.3" r="18.2"/>
		<circle style="fill:none;stroke:#FFFFFF;stroke-width:1.5;stroke-miterlimit:10;" cx="648.5" cy="514.4" r="18.2"/>
		<circle style="fill:none;stroke:#FFFFFF;stroke-width:1.5;stroke-miterlimit:10;" cx="691.3" cy="80.4" r="18.2"/>
		<circle style="fill:none;stroke:#FFFFFF;stroke-width:1.5;stroke-miterlimit:10;" cx="689.1" cy="246.3" r="18.2"/>
		<circle style="fill:#43B4DF;" cx="323.7" cy="363.1" r="18.2"/>
		<circle style="fill:none;stroke:#FFFFFF;stroke-width:1.5;stroke-miterlimit:10;" cx="323.7" cy="363.1" r="18.2"/>
		<circle style="fill:#43B4DF;" cx="648.5" cy="514.4" r="18.2"/>
		<circle style="fill:#43B4DF;" cx="323.7" cy="458" r="18.2"/>
		<circle style="fill:none;stroke:#FFFFFF;stroke-width:1.5;stroke-miterlimit:10;" cx="323.7" cy="458" r="18.2"/>
		<g style="enable-background:new    ;">
			<path style="fill:#FFFFFF;" d="M693.8,88.5h-2.2V73.4l-4.6,1.7V73l6.5-2.4h0.4L693.8,88.5L693.8,88.5z"/>
		</g>
		<g style="enable-background:new    ;">
			<path style="fill:#FFFFFF;" d="M695.8,254.3h-11.6v-1.6l6.2-6.9c0.9-1.1,1.5-1.9,1.9-2.5c0.4-0.6,0.5-1.3,0.5-2.1
				c0-0.9-0.3-1.7-0.8-2.3c-0.5-0.6-1.3-0.9-2.2-0.9c-1.2,0-2,0.4-2.6,1c-0.6,0.6-0.9,1.5-0.9,2.7H684c0-1.6,0.5-2.9,1.6-3.9
				s2.5-1.5,4.2-1.5c1.7,0,2.9,0.4,3.9,1.3c1,0.9,1.4,2.1,1.4,3.5c0,1.8-1.2,3.8-3.4,6.3l-4.7,5.2h8.9v1.8H695.8z"/>
		</g>
		<g style="enable-background:new    ;">
			<path style="fill:#FFFFFF;" d="M327.3,365.2h2.5v1.9h-2.5v4.1H325V367h-8.1v-1.3l7.9-12.3h2.4V365.2z M319.4,365.2h5.5v-8.8
				l-0.3,0.4L319.4,365.2z"/>
		</g>
		<g style="enable-background:new    ;">
			<path style="fill:#FFFFFF;" d="M646.8,513.3h1.7c1.1,0,1.9-0.3,2.5-0.8s0.9-1.3,0.9-2.2c0-2.1-1.1-3.1-3.1-3.1
				c-1,0-1.8,0.3-2.3,0.8s-0.9,1.3-0.9,2.2h-2.2c0-1.4,0.5-2.6,1.5-3.5c1-0.9,2.3-1.4,3.9-1.4c1.7,0,3,0.4,3.9,1.3
				c1,0.9,1.4,2.1,1.4,3.7c0,0.8-0.3,1.5-0.7,2.2c-0.5,0.7-1.2,1.3-2.1,1.6c1,0.3,1.7,0.8,2.2,1.5s0.8,1.6,0.8,2.6
				c0,1.6-0.5,2.9-1.6,3.8c-1.1,0.9-2.4,1.4-4.1,1.4c-1.7,0-3-0.4-4.1-1.3c-1.1-0.9-1.6-2.1-1.6-3.6h2.2c0,0.9,0.3,1.7,0.9,2.2
				c0.6,0.5,1.4,0.8,2.5,0.8c1.1,0,2-0.3,2.5-0.9c0.5-0.5,0.9-1.4,0.9-2.5s-0.4-1.8-1-2.4c-0.6-0.5-1.5-0.8-2.8-0.9h-1.7v-1.6H646.8
				z"/>
		</g>
		<g style="enable-background:new    ;">
			<path style="fill:#FFFFFF;" d="M318.8,458.1l0.9-8.8h9.1v2.1h-7.2l-0.5,4.8c0.9-0.5,1.9-0.8,2.9-0.8c1.6,0,2.9,0.5,3.8,1.6
				c1,1.1,1.4,2.5,1.4,4.4c0,1.9-0.5,3.3-1.5,4.4c-1,1.1-2.4,1.6-4.1,1.6c-1.6,0-2.9-0.4-3.8-1.3c-1-0.9-1.5-2.1-1.7-3.7h2.1
				c0.2,1,0.5,1.8,1.1,2.3c0.6,0.5,1.3,0.8,2.3,0.8c1.1,0,1.9-0.4,2.5-1.1c0.6-0.7,0.9-1.7,0.9-2.9c0-1.2-0.4-2.1-1-2.9
				s-1.5-1.1-2.6-1.1c-1,0-1.8,0.2-2.3,0.6l-0.6,0.4L318.8,458.1z"/>
		</g>
	</g>
</g>
</svg>
